…
    # Open database connection (requires dbplyr and RSQLite packages, DBI installed via dbplyr)
    con <- dbConnect(RSQLite::SQLite(), dbname = "/tmp/gee_db.sqlite")
    dbListTables(con)
    df <- tbl(con, 'col_1') %>% collect()
    df


In that case the table contains only one time-series (uxmal site); we are therefore loading the whole table in memory using ``collect()`` without additional filtering query. 

.. code-block:: rout

    [1] "col_1"

    # A tibble: 390 x 11
       index  blue green id                     nir   red swir1 swir2 time       sensor site 
       <int> <dbl> <dbl> <chr>                <dbl> <dbl> <dbl> <dbl> <chr>      <chr>  <chr>
     1     0   434   635 LT05_020046_19850206  2077   675  2267  1281 1985-02-06 LT5    uxmal
     2     1   370   664 LT05_020046_19850427  2883   588  2136  1128 1985-04-27 LT5    uxmal
     3     2   385   592 LT05_020046_19860108  2732   553  2010   953 1986-01-08 LT5    uxmal
     4     3   555   748 LT05_020046_19860313  1971   823  2497  1479 1986-03-13 LT5    uxmal
     5     4   574   804 LT05_020046_19860414  2216   919  2751  1701 1986-04-14 LT5    uxmal
     6     5   790  1084 LT05_020046_19860703  3852   955  2205  1121 1986-07-03 LT5    uxmal
     7     6   546   858 LT05_020046_19860820  3876   730  1968   896 1986-08-20 LT5    uxmal
     8     7   334   560 LT05_020046_19861007  2694   532  2088  1072 1986-10-07 LT5    uxmal
     9     8   321   539 LT05_020046_19861023  2550   524  2064  1082 1986-10-23 LT5    uxmal
    10     9   590   832 LT05_020046_19870417  2390   891  2752  1660 1987-04-17 LT5    uxmal
    # ... with 380 more rows
…
Now the ``col_1`` sqlite table contains time-series for two different sites (uxmal and rompon). Loading the time-series of a single site can be done thanks to the ``filter()`` dplyr verb.

.. code-block:: r

    df <- tbl(con, 'col_1') %>%
      filter(site == 'rompon') %>%
      collect() %>%
      mutate(time = as.Date(time))
    df

.. code-block:: rout

    # A tibble: 513 x 11
       index  blue green id                     nir   red swir1 swir2 time       sensor site  
       <int> <dbl> <dbl> <chr>                <dbl> <dbl> <dbl> <dbl> <date>     <chr>  <chr> 
     1     0  1023  1179 LT05_196029_19840409  2438  1193  2096  1329 1984-04-09 LT5    rompon
     2     1   822  1035 LT05_196029_19840425  2561   987  2025  1125 1984-04-25 LT5    rompon
     3     4   451   715 LT05_196029_19840612  3481   582  1893   870 1984-06-12 LT5    rompon
     4     6   481   691 LT05_196029_19840815  2935   624  1799   866 1984-08-15 LT5    rompon
     5     7   370   590 LT05_196029_19840831  2880   534  1736   818 1984-08-31 LT5    rompon
     6     8   358   580 LT05_196029_19841002  2833   510  1560   708 1984-10-02 LT5    rompon
     7    10   408   642 LT05_196029_19841119  2491   656  1693   817 1984-11-19 LT5    rompon
     8    13   744   991 LT05_196029_19850327  2284  1033  2046  1239 1985-03-27 LT5    rompon
     9    16   579   845 LT05_196029_19850530  3678   697  2114   999 1985-05-30 LT5    rompon
    10    17   546   800 LT05_196029_19850615  3697   654  1928   933 1985-06-15 LT5    rompon
    # ... with 503 more rows
…
